^C:\USERS\EMANUEL\DOCUMENTS\SISW\SUMMERSCHOOL\WEEK3\DAY1\TILESGAME\TILESGAME\INVERSIONS.CPP
C:\USERS\EMANUEL\DOCUMENTS\SISW\SUMMERSCHOOL\WEEK3\DAY1\TILESGAME\TILESGAME\DEBUG\VC141.PDB
C:\USERS\EMANUEL\DOCUMENTS\SISW\SUMMERSCHOOL\WEEK3\DAY1\TILESGAME\TILESGAME\DEBUG\VC141.IDB
C:\USERS\EMANUEL\DOCUMENTS\SISW\SUMMERSCHOOL\WEEK3\DAY1\TILESGAME\TILESGAME\DEBUG\INVERSIONS.OBJ
